…
O dataset criado após esse processo é mostrado abaixo.

``` r
churn_rec %>% 
  prep() %>% 
  juice() 
```

    ## # A tibble: 7,999 x 13
    ##    credit_score    age tenure balance num_of_products estimated_salary exited
    ##           <dbl>  <dbl>  <dbl>   <dbl>           <dbl>            <dbl> <fct> 
    ##  1       -0.459  0.350 -1.45    0.629          -0.907         0.303    Nao   
    ##  2        0.483  0.159 -1.45   -1.33            0.802        -0.000719 Nao   
    ##  3        2.09   0.530 -1.03    0.777          -0.907        -0.252    Nao   
    ##  4        1.79   1.09   0.712  -1.33            0.802        -1.75     Nao   
    ##  5       -1.54   0.617 -0.280   0.824           0.802        -0.325    Nao   
    ##  6        0.326 -1.31  -1.03    0.803          -0.907        -0.383    Nao   
    ##  7       -1.27  -0.746  0.394   0.700           0.802        -0.233    Nao   
    ##  8       -1.58  -1.81  -0.642  -1.33            0.802        -0.300    Nao   
    ##  9       -1.79  -0.376  1.61   -1.33            0.802        -1.31     Nao   
    ## 10       -0.182 -0.262  0.712  -1.33            0.802        -0.488    Nao   
    ## # ... with 7,989 more rows, and 6 more variables: geography_France <dbl>,
    ## #   geography_Germany <dbl>, geography_Spain <dbl>, gender_Male <dbl>,
    ## #   has_cr_card_Sim <dbl>, is_active_member_Sim <dbl>
…
